{
  "GranuleUR": "Unique_Granule_UR1_v1.5",
  "ProviderDates": [{
    "Date": "2018-07-19T00:00:00Z",
    "Type": "Create"
  }, {
    "Date": "2018-08-19T01:00:00Z",
    "Type": "Insert"
  }, {
    "Date": "2018-09-19T02:00:00Z",
    "Type": "Update"
  }, {
    "Date": "2030-08-19T03:00:00Z",
    "Type": "Delete"
  }],
  "CollectionReference": {
      "EntryTitle": "CollectionTitle v1.5"
  },
  "AccessConstraints": {
    "Description" : "Public Access",
    "Value": 42
  },
  "DataGranule": {
    "ArchiveAndDistributionInformation": [{
      "Name": "GranuleZipFile",
      "Size": 23,
      "SizeUnit": "KB",
      "Format": "ZIP",
      "MimeType": "application/zip",
      "Checksum": {
        "Value": "E51569BF48DD0FD0640C6503A46D4753",
        "Algorithm": "MD5"
      },
      "Files": [{
        "Name": "GranuleFileName1",
        "Size": 10,
        "SizeUnit": "KB",
        "Format": "NETCDF-4",
        "MimeType": "application/x-netcdf",
        "FormatType": "Native",
        "Checksum": {
          "Value": "E51569BF48DD0FD0640C6503A46D4754",
          "Algorithm": "MD5"
        }
      }, {
        "Name": "GranuleFileName2",
        "Size": 1,
        "SizeUnit": "KB",
        "Format": "ASCII",
        "MimeType": "text/plain",
        "FormatType": "NA"
      }]
    }, {
      "Name": "SupportedGranuleFileNotInPackage",
      "Size": 11,
      "SizeUnit": "KB",
      "Format": "NETCDF-CF",
      "FormatType": "Supported",
      "MimeType": "application/x-netcdf",
      "Checksum": {
        "Value": "E51569BF48DD0FD0640C6503A46D4755",
        "Algorithm": "MD5"
      }
    }],
    "ReprocessingPlanned": "The Reprocessing Planned Statement Value",
    "ReprocessingActual": "The Reprocessing Actual Statement Value",
    "DayNightFlag" : "Unspecified",
    "ProductionDateTime" : "2018-07-19T12:01:01Z",
    "Identifiers": [{
      "Identifier": "SMAP_L3_SM_P_20150407_R13080_001.h5",
      "IdentifierType": "ProducerGranuleId"
    }, {
      "Identifier": "LocalVersionIdValue",
      "IdentifierType": "LocalVersionId"
    }, {
      "Identifier": "FeatureIdValue1",
      "IdentifierType": "FeatureId"
    }, {
      "Identifier": "FeatureIdValue2",
      "IdentifierType": "FeatureId"
    }, {
      "Identifier": "1234",
      "IdentifierType": "Other",
      "IdentifierName": "SomeIdentifier"
    },{
      "Identifier": "CRIDValue",
      "IdentifierType": "CRID"
    }]
  },
  "PGEVersionClass": {
    "PGEName": "A PGE Name",
    "PGEVersion": "6.0.27"
  },
  "TemporalExtent": {
    "SingleDateTime": "2018-07-17T00:00:00.000Z"
  },
  "SpatialExtent": {
    "GranuleLocalities": ["GranuleLocality1", "GranuleLocality2"],
    "HorizontalSpatialDomain": {
      "ZoneIdentifier": "1",
      "Orbit": {
        "AscendingCrossing":88.92,
        "StartLatitude":-76.555340,
        "StartDirection": "D",
        "EndLatitude":-78.209954,
        "EndDirection": "D"
      },
      "Track": {
        "Cycle": 1,
        "Passes": [{
          "Pass": 1,
          "Tiles": ["1L","1R","2F"]
        }, {
          "Pass": 2,
          "Tiles": ["3L","3R","4F"]
        }]
      }
    },
    "VerticalSpatialDomains": [{
      "Type": "Atmosphere Layer",
      "Value": "Atmosphere Profile"
    }, {
      "Type": "Pressure",
      "Value": "100",
      "Unit": "HectoPascals"
    }, {
      "Type": "Altitude",
      "MinimumValue": "10",
      "MaximumValue": "100",
      "Unit": "Meters"
    }]
  },
  "OrbitCalculatedSpatialDomains": [{
    "OrbitalModelName": "OrbitalModelName",
    "BeginOrbitNumber": 99263,
    "EndOrbitNumber": 99263,
    "EquatorCrossingLongitude":88.92,
    "EquatorCrossingDateTime": "2018-08-16T16:22:21.000Z"
  }],
  "MeasuredParameters": [{
    "ParameterName": "Parameter Name",
    "QAStats": {
      "QAPercentMissingData": 10,
      "QAPercentOutOfBoundsData": 20,
      "QAPercentInterpolatedData": 30,
      "QAPercentCloudCover": 40
    },
    "QAFlags": {
      "AutomaticQualityFlag": "Passed",
      "AutomaticQualityFlagExplanation": "Automatic Quality Flag Explanation",
      "OperationalQualityFlag": "Passed",
      "OperationalQualityFlagExplanation": "Operational Quality Flag Explanation",
      "ScienceQualityFlag": "Passed",
      "ScienceQualityFlagExplanation": "Science Quality Flag Explanation"
    }
  }],
  "Platforms": [{
    "ShortName": "Aqua",
    "Instruments": [{
      "ShortName": "AMSR-E",
      "Characteristics": [{
        "Name": "InstrumentCaracteristicName1",
        "Value": "150"
      }, {
        "Name": "InstrumentCaracteristicName2",
        "Value": "22F"
      }],
      "ComposedOf": [{
        "ShortName": "AMSR-E_ChildInstrument",
        "Characteristics": [{
          "Name": "ChildInstrumentCharacteristicName3",
          "Value": "250"
        }],
        "OperationalModes": ["Mode3"]
      }],
      "OperationalModes": ["Mode1", "Mode2"]
    }]
  }],
  "Projects": [{
    "ShortName": "Project1"
  }, {
    "ShortName": "Project2"
  }],
  "AdditionalAttributes": [{
    "Name": "AdditionalAttribute1 Name1",
    "Values": ["AdditionalAttribute1 Value3", "AdditionalAttribute1 Value4"]
  }, {
    "Name": "EVI1KM16DAYQCLASSPERCENTAGE",
    "Values": ["EVI1KM16DAYQCLASSPERCENTAGE Value5", "EVI1KM16DAYQCLASSPERCENTAGE Value6"]
  }, {
    "Name": "QAFRACTIONGOODQUALITY",
    "Values": ["QAFRACTIONGOODQUALITY Value7", "QAFRACTIONGOODQUALITY Value8"]
  }, {
    "Name": "QAFRACTIONNOTPRODUCEDCLOUD",
    "Values": ["QAFRACTIONNOTPRODUCEDCLOUD Value9", "QAFRACTIONNOTPRODUCEDCLOUD Value10"]
  }],
  "InputGranules": ["InputGranule1", "InputGranule2"],
   "TilingIdentificationSystem": {
    "TilingIdentificationSystemName": "MODIS Tile EASE",
    "Coordinate1": {
      "MinimumValue": -100,
      "MaximumValue": -50
    },
    "Coordinate2": {
      "MinimumValue": 50,
      "MaximumValue": 100
    }
  },
  "CloudCover": 60,
  "RelatedUrls": [{
    "URL": "https://daac.ornl.gov/daacdata/islscp_ii/vegetation/erbe_albedo_monthly_xdeg/data/erbe_albedo_1deg_1986.zip",
    "Type": "GET DATA",
    "Description": "This link provides direct download access to the granule.",
    "Format": "ZIP",
    "MimeType": "application/zip",
    "Size": 395.673,
    "SizeUnit": "KB"
  }, {
    "URL": "https://daac.ornl.gov/ISLSCP_II/guides/erbe_albedo_monthly_xdeg.html",
    "Type": "VIEW RELATED INFORMATION",
    "Subtype": "USER'S GUIDE",
    "Description": "ORNL DAAC Data Set Documentation",
    "Format": "HTML",
    "MimeType": "text/html"
  }, {
    "URL": "https://webmap.ornl.gov/sdat/pimg/957_1.png",
    "Type": "GET RELATED VISUALIZATION",
    "Description": "ISLSCP II EARTH RADIATION BUDGET EXPERIMENT (ERBE) MONTHLY ALBEDO, 1986-1990",
    "Format": "PNG",
    "MimeType": "image/png",
    "Size": 10,
    "SizeUnit": "MB"    
  }],
  "NativeProjectionNames": ["MODIS Sinusoidal System", "Sinusoidal"],
  "GridMappingNames": ["Sinusoidal", "Lambert Azimuthal Equal-Area"],
  "MetadataSpecification": {
    "URL": "https://cdn.earthdata.nasa.gov/umm/granule/v1.5",
    "Name": "UMM-G",
    "Version": "1.5"
  }
}
